┌─────────┬─────────────────────┬─────────────────────┬──────────────┬──────────────┬──────────────┬──────────────┐
│  type   │   pickup_datetime   │  dropOff_datetime   │ duration_min │ duration_sec │ PUlocationID │ DOlocationID │
│ varchar │      timestamp      │      timestamp      │    int64     │    int64     │    double    │    double    │
├─────────┼─────────────────────┼─────────────────────┼──────────────┼──────────────┼──────────────┼──────────────┤
│ fhv     │ 2021-03-09 18:47:38 │ 2021-03-09 19:28:07 │           41 │         2429 │              │        257.0 │
│ fhv     │ 2021-03-09 18:04:03 │ 2021-03-09 18:13:58 │            9 │          595 │              │         41.0 │
│ fhv     │ 2021-03-09 18:23:01 │ 2021-03-09 18:30:20 │            7 │          439 │              │         74.0 │
│ fhv     │ 2021-03-09 18:34:26 │ 2021-03-09 18:46:18 │           12 │          712 │              │         75.0 │
│ fhv     │ 2021-03-09 18:11:15 │ 2021-03-09 18:21:27 │           10 │          612 │              │         42.0 │
│ fhv     │ 2021-03-09 18:36:32 │ 2021-03-09 18:43:20 │            7 │          408 │              │         75.0 │
│ fhv     │ 2021-03-09 18:49:50 │ 2021-03-09 19:29:40 │           40 │         2390 │              │        242.0 │
│ fhv     │ 2021-03-09 18:00:07 │ 2021-03-09 18:17:27 │           17 │         1040 │              │         41.0 │
│ fhv     │ 2021-03-09 18:15:01 │ 2021-03-09 18:20:44 │            5 │          343 │              │         10.0 │
│ fhv     │ 2021-03-09 18:29:19 │ 2021-03-09 18:38:17 │            9 │          538 │              │         10.0 │
│ fhv     │ 2021-03-09 18:36:14 │ 2021-03-09 19:14:21 │           38 │         2287 │              │         14.0 │
│ fhv     │ 2021-03-09 18:42:37 │ 2021-03-09 19:14:35 │           32 │         1918 │              │        155.0 │
│ fhv     │ 2021-03-09 18:22:39 │ 2021-03-09 18:39:37 │           17 │         1018 │              │        244.0 │
│ fhv     │ 2021-03-09 18:16:50 │ 2021-03-09 18:21:15 │            5 │          265 │              │        127.0 │
│ fhv     │ 2021-03-09 18:25:43 │ 2021-03-09 18:38:14 │           13 │          751 │              │        243.0 │
│ fhv     │ 2021-03-09 18:07:29 │ 2021-03-09 18:17:08 │           10 │          579 │              │        244.0 │
│ fhv     │ 2021-03-09 18:57:43 │ 2021-03-09 19:13:53 │           16 │          970 │              │          7.0 │
│ fhv     │ 2021-03-09 18:14:36 │ 2021-03-09 18:30:52 │           16 │          976 │              │        225.0 │
│ fhv     │ 2021-03-09 18:27:47 │ 2021-03-09 19:25:58 │           58 │         3491 │              │        161.0 │
│ fhv     │ 2021-03-09 18:10:09 │ 2021-03-09 18:27:11 │           17 │         1022 │              │        177.0 │
│  ·      │          ·          │          ·          │            · │           ·  │      ·       │           ·  │
│  ·      │          ·          │          ·          │            · │           ·  │      ·       │           ·  │
│  ·      │          ·          │          ·          │            · │           ·  │      ·       │           ·  │
│ fhv     │ 2021-05-31 23:10:58 │ 2021-05-31 23:20:38 │           10 │          580 │              │         82.0 │
│ fhv     │ 2021-05-31 23:11:16 │ 2021-05-31 23:15:10 │            4 │          234 │              │         82.0 │
│ fhv     │ 2021-05-31 23:28:48 │ 2021-05-31 23:34:46 │            6 │          358 │              │         82.0 │
│ fhv     │ 2021-05-31 23:00:42 │ 2021-05-31 23:12:47 │           12 │          725 │              │         92.0 │
│ fhv     │ 2021-05-31 23:26:00 │ 2021-05-31 23:35:12 │            9 │          552 │              │        129.0 │
│ fhv     │ 2021-05-31 23:30:45 │ 2021-05-31 23:39:58 │            9 │          553 │              │        121.0 │
│ fhv     │ 2021-05-31 23:03:16 │ 2021-05-31 23:11:10 │            8 │          474 │              │         56.0 │
│ fhv     │ 2021-05-31 23:14:34 │ 2021-05-31 23:18:06 │            4 │          212 │              │         82.0 │
│ fhv     │ 2021-05-31 23:33:29 │ 2021-05-31 23:40:56 │            7 │          447 │              │         82.0 │
│ fhv     │ 2021-05-31 23:56:17 │ 2021-06-01 00:01:12 │            5 │          295 │              │         36.0 │
│ fhv     │ 2021-05-31 23:12:57 │ 2021-05-31 23:21:39 │            9 │          522 │              │         82.0 │
│ fhv     │ 2021-05-31 23:41:33 │ 2021-06-01 00:06:38 │           25 │         1505 │              │        258.0 │
│ fhv     │ 2021-05-31 23:09:19 │ 2021-05-31 23:12:23 │            3 │          184 │              │         89.0 │
│ fhv     │ 2021-05-31 23:18:44 │ 2021-05-31 23:28:55 │           10 │          611 │              │        188.0 │
│ fhv     │ 2021-05-31 23:11:15 │ 2021-05-31 23:15:18 │            4 │          243 │              │         91.0 │
│ fhv     │ 2021-05-31 23:28:36 │ 2021-05-31 23:34:55 │            6 │          379 │              │        188.0 │
│ fhv     │ 2021-05-31 23:51:09 │ 2021-05-31 23:56:27 │            5 │          318 │              │        188.0 │
│ fhv     │ 2021-05-31 23:16:05 │ 2021-05-31 23:29:43 │           13 │          818 │              │         77.0 │
│ fhv     │ 2021-05-31 23:39:00 │ 2021-06-01 00:15:00 │           36 │         2160 │              │              │
│ fhv     │ 2021-05-31 23:27:21 │ 2021-05-31 23:50:50 │           23 │         1409 │              │        112.0 │
├─────────┴─────────────────────┴─────────────────────┴──────────────┴──────────────┴──────────────┴──────────────┤
│ 15679790 rows (40 shown)                                                                              7 columns │
└─────────────────────────────────────────────────────────────────────────────────────────────────────────────────┘
